3 Lab 1 (R) | Linear Regression in R and Stata
…
Note: by running these two chunks of code back to back, I wrote over my first attempt at creating a new dummy variable female. If I want to use the second one thats fine, but theres no going back once you overwrite something, so be careful with your code.

Now lets try another example, looking at the variable for age:

mydata %>%
  group_by(demographicsage) %>%
  count()

# A tibble: 76 x 2
# Groups:   demographicsage [76]
   demographicsage     n
             <dbl> <int>
 1             -42     1
 2              -7     1
 3               0   383
 4              12     1
 5              21     1
 6              24     2
 7              28     2
 8              29     4
 9              30     4
10              31     5
#  with 66 more rows

The major concern is that there are some numbers that seem unreasonable. Age is not negative, and 0 is an unlikely age for a person in a billionaire dataset.Lets recode those variables to missing (NA) for now. Again, youll use mutate() and ifelse(), and you will name the variable something easier to work with.

# Recode the variable
mydata <- mydata %>%
  mutate(age = ifelse(demographicsage <= 0, NA, demographicsage))

# Check the new variable
mydata %>%
  group_by(age) %>%
  count()

# A tibble: 74 x 2
# Groups:   age [74]
     age     n
   <dbl> <int>
 1    12     1
 2    21     1
 3    24     2
 4    28     2
 5    29     4
 6    30     4
 7    31     5
 8    32     4
 9    33     8
10    34     6
#  with 64 more rows
…
